module github.com/metal3-io/baremetal-operator

go 1.20

require (
	github.com/go-logr/logr v1.4.1
	github.com/google/safetext v0.0.0-20230106111101-7156a760e523
	github.com/gophercloud/gophercloud v1.5.1-0.20231117122435-08456f7fe42e
	github.com/metal3-io/baremetal-operator/apis v0.5.0
	github.com/metal3-io/baremetal-operator/pkg/hardwareutils v0.5.0
	github.com/onsi/gomega v1.31.1
	github.com/pkg/errors v0.9.1
	github.com/prometheus/client_golang v1.18.0
	github.com/stretchr/testify v1.8.4
	go.etcd.io/etcd/client/pkg/v3 v3.5.11
	go.uber.org/zap v1.26.0
	golang.org/x/exp v0.0.0-20230522175609-2e198f4a06a1
	k8s.io/api v0.28.5
	k8s.io/apimachinery v0.28.5
	k8s.io/client-go v0.28.5
	k8s.io/component-base v0.28.5
	k8s.io/klog/v2 v2.100.1
	k8s.io/utils v0.0.0-20230406110748-d93618cff8a2
	sigs.k8s.io/controller-runtime v0.16.3
	sigs.k8s.io/yaml v1.4.0
)

require (
	github.com/beorn7/perks v1.0.1 // indirect
	github.com/cespare/xxhash/v2 v2.2.0 // indirect
	github.com/davecgh/go-spew v1.1.1 // indirect
	github.com/emicklei/go-restful/v3 v3.11.0 // indirect
	github.com/evanphx/json-patch v5.6.0+incompatible // indirect
	github.com/evanphx/json-patch/v5 v5.6.0 // indirect
	github.com/fsnotify/fsnotify v1.6.0 // indirect
	github.com/go-logr/zapr v1.2.4 // indirect
	github.com/go-openapi/jsonpointer v0.19.6 // indirect
	github.com/go-openapi/jsonreference v0.20.2 // indirect
	github.com/go-openapi/swag v0.22.3 // indirect
	github.com/gogo/protobuf v1.3.2 // indirect
	github.com/golang/groupcache v0.0.0-20210331224755-41bb18bfe9da // indirect
	github.com/golang/protobuf v1.5.3 // indirect
	github.com/google/gnostic-models v0.6.8 // indirect
	github.com/google/go-cmp v0.6.0 // indirect
	github.com/google/gofuzz v1.2.0 // indirect
	github.com/google/uuid v1.5.0 // indirect
	github.com/imdario/mergo v0.3.12 // indirect
	github.com/inconshreveable/mousetrap v1.1.0 // indirect
	github.com/josharian/intern v1.0.0 // indirect
	github.com/json-iterator/go v1.1.12 // indirect
	github.com/mailru/easyjson v0.7.7 // indirect
	github.com/matttproud/golang_protobuf_extensions/v2 v2.0.0 // indirect
	github.com/modern-go/concurrent v0.0.0-20180306012644-bacd9c7ef1dd // indirect
	github.com/modern-go/reflect2 v1.0.2 // indirect
	github.com/munnerz/goautoneg v0.0.0-20191010083416-a7dc8b61c822 // indirect
	github.com/pmezard/go-difflib v1.0.0 // indirect
	github.com/prometheus/client_model v0.5.0 // indirect
	github.com/prometheus/common v0.45.0 // indirect
	github.com/prometheus/procfs v0.12.0 // indirect
	github.com/spf13/cobra v1.7.0 // indirect
	github.com/spf13/pflag v1.0.5 // indirect
	go.uber.org/multierr v1.11.0 // indirect
	golang.org/x/net v0.19.0 // indirect
	golang.org/x/oauth2 v0.12.0 // indirect
	golang.org/x/sys v0.15.0 // indirect
	golang.org/x/term v0.15.0 // indirect
	golang.org/x/text v0.14.0 // indirect
	golang.org/x/time v0.3.0 // indirect
	gomodules.xyz/jsonpatch/v2 v2.4.0 // indirect
	google.golang.org/appengine v1.6.7 // indirect
	google.golang.org/protobuf v1.31.0 // indirect
	gopkg.in/inf.v0 v0.9.1 // indirect
	gopkg.in/yaml.v2 v2.4.0 // indirect
	gopkg.in/yaml.v3 v3.0.1 // indirect
	k8s.io/apiextensions-apiserver v0.28.3 // indirect
	k8s.io/kube-openapi v0.0.0-20230717233707-2695361300d9 // indirect
	sigs.k8s.io/json v0.0.0-20221116044647-bc3834ca7abd // indirect
	sigs.k8s.io/structured-merge-diff/v4 v4.2.3 // indirect
)

replace github.com/metal3-io/baremetal-operator/apis => ./apis

replace github.com/metal3-io/baremetal-operator/pkg/hardwareutils => ./pkg/hardwareutils
